…
``` r
tidy_transit <- nyc_transit %>%
  select(2:18, 20, 23) %>%
  mutate(route8 = as.character(route8), route9 = as.character(route9), route10 = as.character(route10), route11 = as.character(route11)) %>%
  pivot_longer(5:15, names_to = "routes", values_to = "route.number") %>%
  mutate(entry = ifelse(entry == "YES", TRUE, FALSE)) %>%
  drop_na()

tidy_transit
```

    ## # A tibble: 4,270 × 10
    ##    line     station_name station_latitude station_longitude entrance_type entry
    ##    <chr>    <chr>                   <dbl>             <dbl> <chr>         <lgl>
    ##  1 4 Avenue 25th St                  40.7             -74.0 Stair         TRUE 
    ##  2 4 Avenue 25th St                  40.7             -74.0 Stair         TRUE 
    ##  3 4 Avenue 36th St                  40.7             -74.0 Stair         TRUE 
    ##  4 4 Avenue 36th St                  40.7             -74.0 Stair         TRUE 
    ##  5 4 Avenue 36th St                  40.7             -74.0 Stair         TRUE 
    ##  6 4 Avenue 36th St                  40.7             -74.0 Stair         TRUE 
    ##  7 4 Avenue 36th St                  40.7             -74.0 Stair         TRUE 
    ##  8 4 Avenue 36th St                  40.7             -74.0 Stair         TRUE 
    ##  9 4 Avenue 45th St                  40.6             -74.0 Stair         TRUE 
    ## 10 4 Avenue 45th St                  40.6             -74.0 Stair         TRUE 
    ## # … with 4,260 more rows, and 4 more variables: vending <chr>, ada <lgl>,
    ## #   routes <chr>, route.number <chr>
…
-   Clean Mr.Trash Wheel Data

``` r
tidy_mrtw <- mr_tw %>%
  filter(!is.na(dumpster)) %>%
  mutate(sports_balls = as.integer(sports_balls)) %>%
  mutate(vessel_type = "Mr.Trash Wheel") %>%
  slice(1:(n()-1)) %>%
  mutate(dumpster = as.numeric(dumpster))

tidy_mrtw
```

    ## # A tibble: 453 × 15
    ##    dumpster month  year date                weight_tons volume_cubic_yards
    ##       <dbl> <chr> <dbl> <dttm>                    <dbl>              <dbl>
    ##  1        1 May    2014 2014-05-16 00:00:00        4.31                 18
    ##  2        2 May    2014 2014-05-16 00:00:00        2.74                 13
    ##  3        3 May    2014 2014-05-16 00:00:00        3.45                 15
    ##  4        4 May    2014 2014-05-17 00:00:00        3.1                  15
    ##  5        5 May    2014 2014-05-17 00:00:00        4.06                 18
    ##  6        6 May    2014 2014-05-20 00:00:00        2.71                 13
    ##  7        7 May    2014 2014-05-21 00:00:00        1.91                  8
    ##  8        8 May    2014 2014-05-28 00:00:00        3.7                  16
    ##  9        9 June   2014 2014-06-05 00:00:00        2.52                 14
    ## 10       10 June   2014 2014-06-11 00:00:00        3.76                 18
    ## # … with 443 more rows, and 9 more variables: plastic_bottles <dbl>,
    ## #   polystyrene <dbl>, cigarette_butts <dbl>, glass_bottles <dbl>,
    ## #   grocery_bags <dbl>, chip_bags <dbl>, sports_balls <int>,
    ## #   homes_powered <dbl>, vessel_type <chr>
…
``` r
prof_tw <- read_excel("./Trash-Wheel-Collection-Totals-7-2020-2.xlsx", sheet = "Professor Trash Wheel", range = "A2:N117") %>% janitor::clean_names()
```

``` r
tidy_proftw <- prof_tw %>%
  filter(!is.na(dumpster)) %>%
  mutate(sports_balls = as.integer(sports_balls)) %>%
  mutate(vessel_type = "Professor Trash Wheel")

tidy_proftw
```

    ## # A tibble: 71 × 15
    ##    dumpster month     year date                weight_tons volume_cubic_yards
    ##       <dbl> <chr>    <dbl> <dttm>                    <dbl>              <dbl>
    ##  1        1 January   2017 2017-01-02 00:00:00        1.79                 15
    ##  2        2 January   2017 2017-01-30 00:00:00        1.58                 15
    ##  3        3 February  2017 2017-02-26 00:00:00        2.32                 18
    ##  4        4 February  2017 2017-02-26 00:00:00        3.72                 15
    ##  5        5 February  2017 2017-02-28 00:00:00        1.45                 15
    ##  6        6 March     2017 2017-03-30 00:00:00        1.71                 15
    ##  7        7 April     2017 2017-04-01 00:00:00        1.82                 15
    ##  8        8 April     2017 2017-04-20 00:00:00        2.37                 15
    ##  9        9 May       2017 2017-05-10 00:00:00        2.64                 15
    ## 10       10 May       2017 2017-05-26 00:00:00        2.78                 15
    ## # … with 61 more rows, and 9 more variables: plastic_bottles <dbl>,
    ## #   polystyrene <dbl>, cigarette_butts <dbl>, glass_bottles <dbl>,
    ## #   grocery_bags <dbl>, chip_bags <dbl>, sports_balls <int>,
    ## #   homes_powered <dbl>, vessel_type <chr>

-   Bind 2 Data Together

``` r
tidy_tw <- bind_rows(tidy_mrtw,tidy_proftw)
tidy_tw
```

    ## # A tibble: 524 × 15
    ##    dumpster month  year date                weight_tons volume_cubic_yards
    ##       <dbl> <chr> <dbl> <dttm>                    <dbl>              <dbl>
    ##  1        1 May    2014 2014-05-16 00:00:00        4.31                 18
    ##  2        2 May    2014 2014-05-16 00:00:00        2.74                 13
    ##  3        3 May    2014 2014-05-16 00:00:00        3.45                 15
    ##  4        4 May    2014 2014-05-17 00:00:00        3.1                  15
    ##  5        5 May    2014 2014-05-17 00:00:00        4.06                 18
    ##  6        6 May    2014 2014-05-20 00:00:00        2.71                 13
    ##  7        7 May    2014 2014-05-21 00:00:00        1.91                  8
    ##  8        8 May    2014 2014-05-28 00:00:00        3.7                  16
    ##  9        9 June   2014 2014-06-05 00:00:00        2.52                 14
    ## 10       10 June   2014 2014-06-11 00:00:00        3.76                 18
    ## # … with 514 more rows, and 9 more variables: plastic_bottles <dbl>,
    ## #   polystyrene <dbl>, cigarette_butts <dbl>, glass_bottles <dbl>,
    ## #   grocery_bags <dbl>, chip_bags <dbl>, sports_balls <int>,
    ## #   homes_powered <dbl>, vessel_type <chr>
…
``` r
tidy_pm <- pols_month %>%
  separate(mon, into = c("year","month","day"), sep = "-") %>%
  mutate(month = month.abb[as.numeric(month)]) %>%
  mutate(president = ifelse(prez_gop == 1, "Republican", "Democrat")) %>%
  select(-prez_gop,-prez_dem,-day)

tidy_pm
```

    ## # A tibble: 822 × 9
    ##    year  month gov_gop sen_gop rep_gop gov_dem sen_dem rep_dem president
    ##    <chr> <chr>   <dbl>   <dbl>   <dbl>   <dbl>   <dbl>   <dbl> <chr>    
    ##  1 1947  Jan        23      51     253      23      45     198 Democrat 
    ##  2 1947  Feb        23      51     253      23      45     198 Democrat 
    ##  3 1947  Mar        23      51     253      23      45     198 Democrat 
    ##  4 1947  Apr        23      51     253      23      45     198 Democrat 
    ##  5 1947  May        23      51     253      23      45     198 Democrat 
    ##  6 1947  Jun        23      51     253      23      45     198 Democrat 
    ##  7 1947  Jul        23      51     253      23      45     198 Democrat 
    ##  8 1947  Aug        23      51     253      23      45     198 Democrat 
    ##  9 1947  Sep        23      51     253      23      45     198 Democrat 
    ## 10 1947  Oct        23      51     253      23      45     198 Democrat 
    ## # … with 812 more rows
…
``` r
tidy_snp <- snp %>%
  mutate(date = format(as.Date(snp$date, "%m/%d/%y"), "%Y/%m/%d")) %>%
  separate(date, into = c("year", "month", "day"), sep = "/") %>%
  mutate(month = month.abb[as.numeric(month)]) %>%
  select(-day)

tidy_snp
```

    ## # A tibble: 787 × 3
    ##    year  month close
    ##    <chr> <chr> <dbl>
    ##  1 2015  Jul   2080.
    ##  2 2015  Jun   2063.
    ##  3 2015  May   2107.
    ##  4 2015  Apr   2086.
    ##  5 2015  Mar   2068.
    ##  6 2015  Feb   2104.
    ##  7 2015  Jan   1995.
    ##  8 2014  Dec   2059.
    ##  9 2014  Nov   2068.
    ## 10 2014  Oct   2018.
    ## # … with 777 more rows
…
``` r
tidy_unemploy <- unemploy %>%
  pivot_longer(2:13, names_to = "month", values_to = "unemploy_perc") %>%
  mutate(month = str_to_title(month)) %>%
  mutate(year = as.character(year))
```

``` r
tidy_unemploy
```

    ## # A tibble: 816 × 3
    ##    year  month unemploy_perc
    ##    <chr> <chr>         <dbl>
    ##  1 1948  Jan             3.4
    ##  2 1948  Feb             3.8
    ##  3 1948  Mar             4  
    ##  4 1948  Apr             3.9
    ##  5 1948  May             3.5
    ##  6 1948  Jun             3.6
    ##  7 1948  Jul             3.6
    ##  8 1948  Aug             3.9
    ##  9 1948  Sep             3.8
    ## 10 1948  Oct             3.7
    ## # … with 806 more rows

``` r
combined_df <- left_join(tidy_pm, tidy_snp) %>%
  left_join(tidy_unemploy)
```

    ## Joining, by = c("year", "month")
    ## Joining, by = c("year", "month")

``` r
combined_df
```

    ## # A tibble: 822 × 11
    ##    year  month gov_gop sen_gop rep_gop gov_dem sen_dem rep_dem president close
    ##    <chr> <chr>   <dbl>   <dbl>   <dbl>   <dbl>   <dbl>   <dbl> <chr>     <dbl>
    ##  1 1947  Jan        23      51     253      23      45     198 Democrat     NA
    ##  2 1947  Feb        23      51     253      23      45     198 Democrat     NA
    ##  3 1947  Mar        23      51     253      23      45     198 Democrat     NA
    ##  4 1947  Apr        23      51     253      23      45     198 Democrat     NA
    ##  5 1947  May        23      51     253      23      45     198 Democrat     NA
    ##  6 1947  Jun        23      51     253      23      45     198 Democrat     NA
    ##  7 1947  Jul        23      51     253      23      45     198 Democrat     NA
    ##  8 1947  Aug        23      51     253      23      45     198 Democrat     NA
    ##  9 1947  Sep        23      51     253      23      45     198 Democrat     NA
    ## 10 1947  Oct        23      51     253      23      45     198 Democrat     NA
    ## # … with 812 more rows, and 1 more variable: unemploy_perc <dbl>
